<?xml version="1.0" encoding="UTF-8" standalone="no"?>
<!-- Copyright 2017, Laslo Hunhold <dev@frign.de> CC BY 4.0 -->

<svg
   width="512"
   height="512"
   version="1.1"
   id="svg74"
   sodipodi:docname="slock.svg"
   inkscape:version="1.1 (c4e8f9ed74, 2021-05-24)"
   xmlns:inkscape="http://www.inkscape.org/namespaces/inkscape"
   xmlns:sodipodi="http://sodipodi.sourceforge.net/DTD/sodipodi-0.dtd"
   xmlns="http://www.w3.org/2000/svg"
   xmlns:svg="http://www.w3.org/2000/svg">
  <defs
     id="defs78" />
  <sodipodi:namedview
     id="namedview76"
     pagecolor="#505050"
     bordercolor="#ffffff"
     borderopacity="1"
     inkscape:pageshadow="0"
     inkscape:pageopacity="0"
     inkscape:pagecheckerboard="1"
     showgrid="false"
     width="512px"
     inkscape:zoom="0.5619691"
     inkscape:cx="237.55755"
     inkscape:cy="224.21162"
     inkscape:window-width="1256"
     inkscape:window-height="755"
     inkscape:window-x="10"
     inkscape:window-y="31"
     inkscape:window-maximized="1"
     inkscape:current-layer="svg74" />
  <path
     fill="#222222"
     d="M 307.2,0 V 204.8 H 102.4 V 409.6 H 0 V 512 H 204.8 V 307.2 H 307.2 V 512 H 512 V 409.6 H 409.6 V 0 Z"
     id="path72"
     sodipodi:nodetypes="ccccccccccccccc"
     style="stroke-width:12.8;fill:#81a1c1;fill-opacity:1" />
</svg>
